// Jest Snapshot v1, https://goo.gl/fbAQLP

exports[`UploadButton renders correctly 1`] = `
<span
  className=""
>
  <div
    className="ant-upload ant-upload-select ant-upload-select-text"
    style={
      Object {
        "display": "",
      }
    }
  >
    <span
      className="ant-upload"
      onClick={[Function]}
      onDragOver={[Function]}
      onDrop={[Function]}
      onKeyDown={[Function]}
      role="button"
      style={
        Object {
          "marginBottom": "15px",
        }
      }
      tabIndex="0"
    >
      <input
        accept=""
        multiple={false}
        onChange={[Function]}
        style={
          Object {
            "display": "none",
          }
        }
        type="file"
      />
      <button
        className="ant-btn"
        onClick={[Function]}
        type="button"
      >
        <i
          className="anticon anticon-upload"
        />
        <span>
          Upload 
        </span>
        <span>
          Grants
        </span>
      </button>
    </span>
  </div>
  <div
    className="ant-upload-list ant-upload-list-text"
    style={undefined}
  />
</span>
`;
